\relax 
\providecommand\zref@newlabel[2]{}
\catcode `"\active 
\catcode `<\active 
\catcode `>\active 
\@nameuse{es@quoting}
\select@language{spanish}
\@writefile{toc}{\select@language{spanish}}
\@writefile{lof}{\select@language{spanish}}
\@writefile{lot}{\select@language{spanish}}
\@writefile{lof}{\contentsline {figure}{\numberline {1}{\ignorespaces Sensor de humedad\relax }}{1}}
\providecommand*\caption@xref[2]{\@setref\relax\@undefined{#1}}
\newlabel{sensh}{{1}{1}}
\@writefile{lof}{\contentsline {figure}{\numberline {2}{\ignorespaces Conexión del sensor de humedad\relax }}{1}}
\newlabel{conexiones}{{2}{1}}
\pgfsyspdfmark {pgfid1}{13458359}{26011994}
\pgfsyspdfmark {pgfid2}{6249399}{8438622}
\@writefile{lof}{\contentsline {figure}{\numberline {3}{\ignorespaces Conexiones del sensor de humedad a IFLAB\relax }}{3}}
\newlabel{sensh2}{{3}{3}}
\pgfsyspdfmark {pgfid3}{6249399}{22596432}
\@writefile{lof}{\contentsline {figure}{\numberline {4}{\ignorespaces Sensor de goteo\relax }}{4}}
\newlabel{progsensh}{{4}{4}}
\pgfsyspdfmark {pgfid4}{6249399}{25940924}
