\relax 
\providecommand\zref@newlabel[2]{}
\catcode `"\active 
\catcode `<\active 
\catcode `>\active 
\@nameuse{es@quoting}
\select@language{spanish}
\@writefile{toc}{\select@language{spanish}}
\@writefile{lof}{\select@language{spanish}}
\@writefile{lot}{\select@language{spanish}}
\pgfsyspdfmark {pgfid1}{8215479}{36367496}
\@writefile{lof}{\contentsline {figure}{\numberline {1}{\ignorespaces Sensor Infrarrojo de cuatro canales\relax }}{2}}
\providecommand*\caption@xref[2]{\@setref\relax\@undefined{#1}}
\newlabel{sensr}{{1}{2}}
\@writefile{lof}{\contentsline {figure}{\numberline {2}{\ignorespaces Conexión del sensor Infrarrojo de cuatro canales\relax }}{3}}
\newlabel{sensr1}{{2}{3}}
\pgfsyspdfmark {pgfid2}{13458359}{6630771}
\pgfsyspdfmark {pgfid3}{13458359}{40756286}
\@writefile{lof}{\contentsline {figure}{\numberline {3}{\ignorespaces Conexiones del sensor Infrarrojo de cuatro canales a IFLAB\relax }}{4}}
\newlabel{sensr2}{{3}{4}}
\pgfsyspdfmark {pgfid4}{6249399}{6768180}
\@writefile{lof}{\contentsline {figure}{\numberline {4}{\ignorespaces Porgrama de medidor de distacia básico\relax }}{5}}
\newlabel{progsensr}{{4}{5}}
\pgfsyspdfmark {pgfid5}{6249399}{32702835}
