\relax 
\providecommand\zref@newlabel[2]{}
\catcode `"\active 
\catcode `<\active 
\catcode `>\active 
\@nameuse{es@quoting}
\select@language{spanish}
\@writefile{toc}{\select@language{spanish}}
\@writefile{lof}{\select@language{spanish}}
\@writefile{lot}{\select@language{spanish}}
\@writefile{lof}{\contentsline {figure}{\numberline {1}{\ignorespaces Micrófono\relax }}{1}}
\providecommand*\caption@xref[2]{\@setref\relax\@undefined{#1}}
\newlabel{microf}{{1}{1}}
\@writefile{lof}{\contentsline {figure}{\numberline {2}{\ignorespaces Sensor de sonido \textbf  {KY-038}\relax }}{1}}
\newlabel{microf1}{{2}{1}}
\pgfsyspdfmark {pgfid1}{13458359}{24715636}
\pgfsyspdfmark {pgfid2}{6249399}{7127634}
\@writefile{lof}{\contentsline {figure}{\numberline {3}{\ignorespaces Conexiones del sensor de sonido a IFLAB\relax }}{3}}
\newlabel{microf2}{{3}{3}}
\@writefile{lof}{\contentsline {figure}{\numberline {4}{\ignorespaces Programa de visualización de onda sonora\relax }}{3}}
\newlabel{progm}{{4}{3}}
\pgfsyspdfmark {pgfid3}{6249399}{12360674}
