\relax 
\providecommand\zref@newlabel[2]{}
\catcode `"\active 
\catcode `<\active 
\catcode `>\active 
\@nameuse{es@quoting}
\select@language{spanish}
\@writefile{toc}{\select@language{spanish}}
\@writefile{lof}{\select@language{spanish}}
\@writefile{lot}{\select@language{spanish}}
\@writefile{lof}{\contentsline {figure}{\numberline {1}{\ignorespaces Fotoresistencia\relax }}{1}}
\providecommand*\caption@xref[2]{\@setref\relax\@undefined{#1}}
\newlabel{fotor}{{1}{1}}
\pgfsyspdfmark {pgfid1}{13458359}{7797334}
\@writefile{lof}{\contentsline {figure}{\numberline {2}{\ignorespaces Sensor de luz\relax }}{2}}
\newlabel{sensl}{{2}{2}}
\pgfsyspdfmark {pgfid2}{13458359}{7142853}
\pgfsyspdfmark {pgfid3}{13458359}{41286719}
\@writefile{lof}{\contentsline {figure}{\numberline {3}{\ignorespaces Conexiones del sensor de luz a IFLAB\relax }}{3}}
\newlabel{sensl2}{{3}{3}}
\pgfsyspdfmark {pgfid4}{6249399}{6630771}
\@writefile{lof}{\contentsline {figure}{\numberline {4}{\ignorespaces Porgrama de medidor de luz básico\relax }}{4}}
\newlabel{progsensl}{{4}{4}}
\pgfsyspdfmark {pgfid5}{6249399}{25413311}
