\relax 
\providecommand\zref@newlabel[2]{}
\catcode `"\active 
\catcode `<\active 
\catcode `>\active 
\@nameuse{es@quoting}
\select@language{spanish}
\@writefile{toc}{\select@language{spanish}}
\@writefile{lof}{\select@language{spanish}}
\@writefile{lot}{\select@language{spanish}}
\@writefile{lof}{\contentsline {figure}{\numberline {1}{\ignorespaces led RGB\relax }}{1}}
\providecommand*\caption@xref[2]{\@setref\relax\@undefined{#1}}
\newlabel{sensr}{{1}{1}}
\@writefile{lof}{\contentsline {figure}{\numberline {2}{\ignorespaces Conexión interna del led RGB\relax }}{2}}
\newlabel{sensr1}{{2}{2}}
\pgfsyspdfmark {pgfid1}{6249399}{19858804}
\@writefile{lof}{\contentsline {figure}{\numberline {3}{\ignorespaces Conexiones del led RGB a IFLAB\relax }}{3}}
\newlabel{sensr2}{{3}{3}}
\pgfsyspdfmark {pgfid2}{6249399}{22422546}
\@writefile{lof}{\contentsline {figure}{\numberline {4}{\ignorespaces Colores rojo,azul y verde\relax }}{4}}
\newlabel{progsensr1}{{4}{4}}
\pgfsyspdfmark {pgfid3}{6249399}{25267396}
\@writefile{lof}{\contentsline {figure}{\numberline {5}{\ignorespaces Colores obtenidos a partir del rojo, azul y verde \relax }}{5}}
\newlabel{progsensr}{{5}{5}}
\pgfsyspdfmark {pgfid4}{6249399}{12527439}
