\relax 
\providecommand\zref@newlabel[2]{}
\catcode `"\active 
\catcode `<\active 
\catcode `>\active 
\@nameuse{es@quoting}
\select@language{spanish}
\@writefile{toc}{\select@language{spanish}}
\@writefile{lof}{\select@language{spanish}}
\@writefile{lot}{\select@language{spanish}}
\@writefile{lof}{\contentsline {figure}{\numberline {1}{\ignorespaces Láser\relax }}{1}}
\providecommand*\caption@xref[2]{\@setref\relax\@undefined{#1}}
\newlabel{laser3}{{1}{1}}
\@writefile{lof}{\contentsline {figure}{\numberline {2}{\ignorespaces Módulo Láser \textbf  {KY-008}\relax }}{2}}
\newlabel{laser2}{{2}{2}}
\pgfsyspdfmark {pgfid1}{13458359}{17416709}
\pgfsyspdfmark {pgfid2}{6249399}{6903765}
\@writefile{lof}{\contentsline {figure}{\numberline {3}{\ignorespaces Conexiones del módulo láser\relax }}{3}}
\newlabel{laser}{{3}{3}}
\pgfsyspdfmark {pgfid3}{6249399}{19516974}
\@writefile{lof}{\contentsline {figure}{\numberline {4}{\ignorespaces Porgrama de laser intermitente\relax }}{4}}
\newlabel{progsensr}{{4}{4}}
\pgfsyspdfmark {pgfid4}{6249399}{26675929}
