\relax 
\providecommand\zref@newlabel[2]{}
\catcode `"\active 
\catcode `<\active 
\catcode `>\active 
\@nameuse{es@quoting}
\select@language{spanish}
\@writefile{toc}{\select@language{spanish}}
\@writefile{lof}{\select@language{spanish}}
\@writefile{lot}{\select@language{spanish}}
\@writefile{lof}{\contentsline {figure}{\numberline {1}{\ignorespaces Sensor Infrarrojo de cuatro canales\relax }}{1}}
\providecommand*\caption@xref[2]{\@setref\relax\@undefined{#1}}
\newlabel{sensr}{{1}{1}}
\pgfsyspdfmark {pgfid1}{8215479}{36367496}
\@writefile{lof}{\contentsline {figure}{\numberline {2}{\ignorespaces Conexión del sensor Infrarrojo de cuatro canales\relax }}{2}}
\newlabel{sensr1}{{2}{2}}
\pgfsyspdfmark {pgfid2}{13458359}{31665938}
\@writefile{lof}{\contentsline {figure}{\numberline {3}{\ignorespaces Conexiones del sensor Infrarrojo de cuatro canales a IFLAB\relax }}{4}}
\newlabel{sensr2}{{3}{4}}
\@writefile{lof}{\contentsline {figure}{\numberline {4}{\ignorespaces Porgrama de medidor de distacia básico\relax }}{4}}
\newlabel{progsensr}{{4}{4}}
\pgfsyspdfmark {pgfid3}{6249399}{21122091}
\pgfsyspdfmark {pgfid4}{6249399}{43757431}
